 [
  {
  "id": "bitcoin",
  "name": "Bitcoin",
  "symbol": "BTC",
  "rank": "1",
  "price_usd": "7523.58",
  "price_btc": "1.0",
  "24h_volume_usd": "2238730000.0",
  "market_cap_usd": "125383936594",
  "available_supply": "16665462.0",
  "total_supply": "16665462.0",
  "percent_change_1h": "-0.45",
  "percent_change_24h": "1.08",
  "percent_change_7d": "23.96",
  "last_updated": "1509915551"
  },
  {
  "id": "ethereum",
  "name": "Ethereum",
  "symbol": "ETH",
  "rank": "2",
  "price_usd": "296.664",
  "price_btc": "0.0394361",
  "24h_volume_usd": "329302000.0",
  "market_cap_usd": "28344597389.0",
  "available_supply": "95544446.0",
  "total_supply": "95544446.0",
  "percent_change_1h": "0.4",
  "percent_change_24h": "-0.82",
  "percent_change_7d": "-3.48",
  "last_updated": "1509915549"
  },
  {
  "id": "bitcoin-cash",
  "name": "Bitcoin Cash",
  "symbol": "BCH",
  "rank": "3",
  "price_usd": "628.902",
  "price_btc": "0.0836011",
  "24h_volume_usd": "760976000.0",
  "market_cap_usd": "10542834515.0",
  "available_supply": "16763875.0",
  "total_supply": "16763875.0",
  "percent_change_1h": "1.92",
  "percent_change_24h": "0.22",
  "percent_change_7d": "37.14",
  "last_updated": "1509915562"
  },
  {
  "id": "ripple",
  "name": "Ripple",
  "symbol": "XRP",
  "rank": "4",
  "price_usd": "0.202159",
  "price_btc": "0.00002687",
  "24h_volume_usd": "46121800.0",
  "market_cap_usd": "7789497377.0",
  "available_supply": "38531538922.0",
  "total_supply": "99993667738.0",
  "percent_change_1h": "0.33",
  "percent_change_24h": "-0.89",
  "percent_change_7d": "-0.54",
  "last_updated": "1509915541"
  },
  {
  "id": "litecoin",
  "name": "Litecoin",
  "symbol": "LTC",
  "rank": "5",
  "price_usd": "55.077",
  "price_btc": "0.00732149",
  "24h_volume_usd": "81387400.0",
  "market_cap_usd": "2957351659.0",
  "available_supply": "53694857.0",
  "total_supply": "53694857.0",
  "percent_change_1h": "0.05",
  "percent_change_24h": "-0.45",
  "percent_change_7d": "-3.2",
  "last_updated": "1509915541"
  },
  {
  "id": "dash",
  "name": "Dash",
  "symbol": "DASH",
  "rank": "6",
  "price_usd": "272.598",
  "price_btc": "0.0362369",
  "24h_volume_usd": "40617800.0",
  "market_cap_usd": "2091051460.0",
  "available_supply": "7670825.0",
  "total_supply": "7670825.0",
  "percent_change_1h": "0.5",
  "percent_change_24h": "-0.4",
  "percent_change_7d": "-4.05",
  "last_updated": "1509915542"
  },
  {
  "id": "neo",
  "name": "NEO",
  "symbol": "NEO",
  "rank": "7",
  "price_usd": "25.8387",
  "price_btc": "0.00343479",
  "24h_volume_usd": "24687200.0",
  "market_cap_usd": "1679515500.0",
  "available_supply": "65000000.0",
  "total_supply": "100000000.0",
  "percent_change_1h": "-0.43",
  "percent_change_24h": "-3.03",
  "percent_change_7d": "-8.25",
  "last_updated": "1509915555"
  },
  {
  "id": "nem",
  "name": "NEM",
  "symbol": "XEM",
  "rank": "8",
  "price_usd": "0.164399",
  "price_btc": "0.00002185",
  "24h_volume_usd": "4149500.0",
  "market_cap_usd": "1479591000.0",
  "available_supply": "8999999999.0",
  "total_supply": "8999999999.0",
  "percent_change_1h": "-0.24",
  "percent_change_24h": "-5.41",
  "percent_change_7d": "-18.33",
  "last_updated": "1509915547"
  },
  {
  "id": "monero",
  "name": "Monero",
  "symbol": "XMR",
  "rank": "9",
  "price_usd": "86.5501",
  "price_btc": "0.0115053",
  "24h_volume_usd": "26136900.0",
  "market_cap_usd": "1325422643.0",
  "available_supply": "15313935.0",
  "total_supply": "15313935.0",
  "percent_change_1h": "0.01",
  "percent_change_24h": "-0.86",
  "percent_change_7d": "-2.65",
  "last_updated": "1509915543"
  },
  {
  "id": "ethereum-classic",
  "name": "Ethereum Classic",
  "symbol": "ETC",
  "rank": "10",
  "price_usd": "13.3514",
  "price_btc": "0.00177482",
  "24h_volume_usd": "320225000.0",
  "market_cap_usd": "1297193492.0",
  "available_supply": "97157863.0",
  "total_supply": "97157863.0",
  "percent_change_1h": "-0.78",
  "percent_change_24h": "12.04",
  "percent_change_7d": "22.45",
  "last_updated": "1509915552"
  },
  {
  "id": "iota",
  "name": "IOTA",
  "symbol": "MIOTA",
  "rank": "11",
  "price_usd": "0.352327",
  "price_btc": "0.00004684",
  "24h_volume_usd": "13127800.0",
  "market_cap_usd": "979303566.0",
  "available_supply": "2779530283.0",
  "total_supply": "2779530283.0",
  "percent_change_1h": "0.78",
  "percent_change_24h": "-5.58",
  "percent_change_7d": "-10.18",
  "last_updated": "1509915561"
  },
  {
  "id": "qtum",
  "name": "Qtum",
  "symbol": "QTUM",
  "rank": "12",
  "price_usd": "10.0829",
  "price_btc": "0.00134033",
  "24h_volume_usd": "47835900.0",
  "market_cap_usd": "742501933.0",
  "available_supply": "73639720.0",
  "total_supply": "100139720.0",
  "percent_change_1h": "-0.95",
  "percent_change_24h": "-0.2",
  "percent_change_7d": "-3.35",
  "last_updated": "1509915558"
  },
  {
  "id": "omisego",
  "name": "OmiseGO",
  "symbol": "OMG",
  "rank": "13",
  "price_usd": "6.18793",
  "price_btc": "0.00082257",
  "24h_volume_usd": "11870900.0",
  "market_cap_usd": "608347923.0",
  "available_supply": "98312024.0",
  "total_supply": "140245398.0",
  "percent_change_1h": "-0.58",
  "percent_change_24h": "-3.95",
  "percent_change_7d": "-15.72",
  "last_updated": "1509915562"
  },
  {
  "id": "bitconnect",
  "name": "BitConnect",
  "symbol": "BCC",
  "rank": "14",
  "price_usd": "278.406",
  "price_btc": "0.037009",
  "24h_volume_usd": "15090400.0",
  "market_cap_usd": "595257641.0",
  "available_supply": "2138092.0",
  "total_supply": "8392580.0",
  "percent_change_1h": "-1.1",
  "percent_change_24h": "-0.95",
  "percent_change_7d": "24.54",
  "last_updated": "1509915556"
  },
  {
  "id": "cardano",
  "name": "Cardano",
  "symbol": "ADA",
  "rank": "15",
  "price_usd": "0.0226121",
  "price_btc": "0.00000301",
  "24h_volume_usd": "2074300.0",
  "market_cap_usd": "586265512.0",
  "available_supply": "25927070538.0",
  "total_supply": "31112483745.0",
  "percent_change_1h": "1.5",
  "percent_change_24h": "-0.3",
  "percent_change_7d": "-21.23",
  "last_updated": "1509915567"
  },
  {
  "id": "zcash",
  "name": "Zcash",
  "symbol": "ZEC",
  "rank": "16",
  "price_usd": "227.645",
  "price_btc": "0.0302613",
  "24h_volume_usd": "34809400.0",
  "market_cap_usd": "581836433.0",
  "available_supply": "2555894.0",
  "total_supply": "2555894.0",
  "percent_change_1h": "-0.11",
  "percent_change_24h": "-1.85",
  "percent_change_7d": "-2.89",
  "last_updated": "1509915553"
  },
  {
  "id": "lisk",
  "name": "Lisk",
  "symbol": "LSK",
  "rank": "17",
  "price_usd": "4.51458",
  "price_btc": "0.00060013",
  "24h_volume_usd": "7064110.0",
  "market_cap_usd": "516859772.0",
  "available_supply": "114486790.0",
  "total_supply": "114486790.0",
  "percent_change_1h": "0.57",
  "percent_change_24h": "-2.43",
  "percent_change_7d": "-7.09",
  "last_updated": "1509915550"
  },
  {
  "id": "tether",
  "name": "Tether",
  "symbol": "USDT",
  "rank": "18",
  "price_usd": "0.999028",
  "price_btc": "0.0001328",
  "24h_volume_usd": "225165000.0",
  "market_cap_usd": "493581439.0",
  "available_supply": "494061667.0",
  "total_supply": "494999472.0",
  "percent_change_1h": "-0.01",
  "percent_change_24h": "-0.83",
  "percent_change_7d": "-0.17",
  "last_updated": "1509915548"
  },
  {
  "id": "eos",
  "name": "EOS",
  "symbol": "EOS",
  "rank": "19",
  "price_usd": "1.08055",
  "price_btc": "0.00014364",
  "24h_volume_usd": "30294300.0",
  "market_cap_usd": "485979046.0",
  "available_supply": "449751558.0",
  "total_supply": "1000000000.0",
  "percent_change_1h": "1.4",
  "percent_change_24h": "-0.04",
  "percent_change_7d": "63.01",
  "last_updated": "1509915560"
  },
  {
  "id": "stellar",
  "name": "Stellar Lumens",
  "symbol": "XLM",
  "rank": "20",
  "price_usd": "0.0266405",
  "price_btc": "0.00000354",
  "24h_volume_usd": "8289670.0",
  "market_cap_usd": "441918355.0",
  "available_supply": "16588215481.0",
  "total_supply": "103392940678",
  "percent_change_1h": "0.89",
  "percent_change_24h": "-2.16",
  "percent_change_7d": "-15.43",
  "last_updated": "1509915544"
  },
  {
  "id": "waves",
  "name": "Waves",
  "symbol": "WAVES",
  "rank": "21",
  "price_usd": "3.53013",
  "price_btc": "0.00046927",
  "24h_volume_usd": "10316900.0",
  "market_cap_usd": "353013000.0",
  "available_supply": "100000000.0",
  "total_supply": "100000000.0",
  "percent_change_1h": "0.54",
  "percent_change_24h": "-4.8",
  "percent_change_7d": "-1.24",
  "last_updated": "1509915553"
  },
  {
  "id": "hshare",
  "name": "Hshare",
  "symbol": "HSR",
  "rank": "22",
  "price_usd": "9.88598",
  "price_btc": "0.00131416",
  "24h_volume_usd": "12939200.0",
  "market_cap_usd": "332168928.0",
  "available_supply": "33600000.0",
  "total_supply": "42206658.0",
  "percent_change_1h": "-0.39",
  "percent_change_24h": "1.4",
  "percent_change_7d": "3.86",
  "last_updated": "1509915563"
  },
  {
  "id": "stratis",
  "name": "Stratis",
  "symbol": "STRAT",
  "rank": "23",
  "price_usd": "2.90832",
  "price_btc": "0.00038661",
  "24h_volume_usd": "5578100.0",
  "market_cap_usd": "286790527.0",
  "available_supply": "98610375.0",
  "total_supply": "98610375.0",
  "percent_change_1h": "-0.16",
  "percent_change_24h": "-3.23",
  "percent_change_7d": "-30.44",
  "last_updated": "1509915552"
  },
  {
  "id": "komodo",
  "name": "Komodo",
  "symbol": "KMD",
  "rank": "24",
  "price_usd": "2.55716",
  "price_btc": "0.00033993",
  "24h_volume_usd": "1314670.0",
  "market_cap_usd": "258133820.0",
  "available_supply": "100945510.0",
  "total_supply": "100945510.0",
  "percent_change_1h": "1.16",
  "percent_change_24h": "7.58",
  "percent_change_7d": "20.81",
  "last_updated": "1509915555"
  },
  {
  "id": "bytecoin-bcn",
  "name": "Bytecoin",
  "symbol": "BCN",
  "rank": "25",
  "price_usd": "0.00127212",
  "price_btc": "0.00000017",
  "24h_volume_usd": "2195270.0",
  "market_cap_usd": "233120486.0",
  "available_supply": "183253534612",
  "total_supply": "183253534612",
  "percent_change_1h": "-0.11",
  "percent_change_24h": "-0.4",
  "percent_change_7d": "-10.47",
  "last_updated": "1509915544"
  },
  {
  "id": "ark",
  "name": "Ark",
  "symbol": "ARK",
  "rank": "26",
  "price_usd": "2.29319",
  "price_btc": "0.00030484",
  "24h_volume_usd": "2766390.0",
  "market_cap_usd": "224689701.0",
  "available_supply": "97981284.0",
  "total_supply": "129231284.0",
  "percent_change_1h": "0.81",
  "percent_change_24h": "-3.33",
  "percent_change_7d": "-6.33",
  "last_updated": "1509915556"
  },
  {
  "id": "steem",
  "name": "Steem",
  "symbol": "STEEM",
  "rank": "27",
  "price_usd": "0.878389",
  "price_btc": "0.00011677",
  "24h_volume_usd": "687413.0",
  "market_cap_usd": "215863202.0",
  "available_supply": "245748981.0",
  "total_supply": "262723075.0",
  "percent_change_1h": "-0.21",
  "percent_change_24h": "-6.75",
  "percent_change_7d": "-11.47",
  "last_updated": "1509915550"
  },
  {
  "id": "ardor",
  "name": "Ardor",
  "symbol": "ARDR",
  "rank": "28",
  "price_usd": "0.200176",
  "price_btc": "0.00002661",
  "24h_volume_usd": "326138.0",
  "market_cap_usd": "199975723.0",
  "available_supply": "998999495.0",
  "total_supply": "998999495.0",
  "percent_change_1h": "-1.04",
  "percent_change_24h": "-2.49",
  "percent_change_7d": "2.07",
  "last_updated": "1509915552"
  },
  {
  "id": "augur",
  "name": "Augur",
  "symbol": "REP",
  "rank": "29",
  "price_usd": "16.5546",
  "price_btc": "0.00220063",
  "24h_volume_usd": "2035160.0",
  "market_cap_usd": "182100600.0",
  "available_supply": "11000000.0",
  "total_supply": "11000000.0",
  "percent_change_1h": "0.13",
  "percent_change_24h": "-5.83",
  "percent_change_7d": "-7.01",
  "last_updated": "1509915554"
  },
  {
  "id": "pivx",
  "name": "PIVX",
  "symbol": "PIVX",
  "rank": "30",
  "price_usd": "3.16404",
  "price_btc": "0.0004206",
  "24h_volume_usd": "1558550.0",
  "market_cap_usd": "172888667.0",
  "available_supply": "54641745.0",
  "total_supply": "54641745.0",
  "percent_change_1h": "-0.53",
  "percent_change_24h": "12.16",
  "percent_change_7d": "-5.14",
  "last_updated": "1509915550"
  },
  {
  "id": "tenx",
  "name": "TenX",
  "symbol": "PAY",
  "rank": "31",
  "price_usd": "1.64081",
  "price_btc": "0.00021812",
  "24h_volume_usd": "1496880.0",
  "market_cap_usd": "171729324.0",
  "available_supply": "104661310.0",
  "total_supply": "205218256.0",
  "percent_change_1h": "1.84",
  "percent_change_24h": "-1.67",
  "percent_change_7d": "-6.89",
  "last_updated": "1509915560"
  },
  {
  "id": "decred",
  "name": "Decred",
  "symbol": "DCR",
  "rank": "32",
  "price_usd": "27.7347",
  "price_btc": "0.00368682",
  "24h_volume_usd": "640038.0",
  "market_cap_usd": "169215347.0",
  "available_supply": "6101214.0",
  "total_supply": "6521214.0",
  "percent_change_1h": "-0.1",
  "percent_change_24h": "-6.6",
  "percent_change_7d": "-8.2",
  "last_updated": "1509915550"
  },
  {
  "id": "golem-network-tokens",
  "name": "Golem",
  "symbol": "GNT",
  "rank": "33",
  "price_usd": "0.188097",
  "price_btc": "0.00002500",
  "24h_volume_usd": "2126860.0",
  "market_cap_usd": "156690820.0",
  "available_supply": "833032000.0",
  "total_supply": "1000000000.0",
  "percent_change_1h": "-0.33",
  "percent_change_24h": "-5.3",
  "percent_change_7d": "-4.0",
  "last_updated": "1509915554"
  },
  {
  "id": "populous",
  "name": "Populous",
  "symbol": "PPT",
  "rank": "34",
  "price_usd": "3.75748",
  "price_btc": "0.00049949",
  "24h_volume_usd": "305104.0",
  "market_cap_usd": "155004489.0",
  "available_supply": "41252246.0",
  "total_supply": "53252246.0",
  "percent_change_1h": "2.32",
  "percent_change_24h": "-1.04",
  "percent_change_7d": "7.96",
  "last_updated": "1509915561"
  },
  {
  "id": "binance-coin",
  "name": "Binance Coin",
  "symbol": "BNB",
  "rank": "35",
  "price_usd": "1.55554",
  "price_btc": "0.00020678",
  "24h_volume_usd": "2812490.0",
  "market_cap_usd": "154020238.0",
  "available_supply": "99014000.0",
  "total_supply": "199013968.0",
  "percent_change_1h": "0.76",
  "percent_change_24h": "-3.16",
  "percent_change_7d": "28.0",
  "last_updated": "1509915562"
  },
  {
  "id": "bitshares",
  "name": "BitShares",
  "symbol": "BTS",
  "rank": "36",
  "price_usd": "0.0591878",
  "price_btc": "0.00000787",
  "24h_volume_usd": "2377240.0",
  "market_cap_usd": "153976470.0",
  "available_supply": "2601490000.0",
  "total_supply": "2601490000.0",
  "percent_change_1h": "0.51",
  "percent_change_24h": "0.9",
  "percent_change_7d": "7.74",
  "last_updated": "1509915546"
  },
  {
  "id": "vertcoin",
  "name": "Vertcoin",
  "symbol": "VTC",
  "rank": "37",
  "price_usd": "3.64896",
  "price_btc": "0.00048506",
  "24h_volume_usd": "15589400.0",
  "market_cap_usd": "149458482.0",
  "available_supply": "40959200.0",
  "total_supply": "40959200.0",
  "percent_change_1h": "1.11",
  "percent_change_24h": "-8.65",
  "percent_change_7d": "-20.55",
  "last_updated": "1509915542"
  },
  {
  "id": "maidsafecoin",
  "name": "MaidSafeCoin",
  "symbol": "MAID",
  "rank": "38",
  "price_usd": "0.324083",
  "price_btc": "0.00004308",
  "24h_volume_usd": "1440720.0",
  "market_cap_usd": "146664543.0",
  "available_supply": "452552412.0",
  "total_supply": "452552412.0",
  "percent_change_1h": "-2.61",
  "percent_change_24h": "-2.6",
  "percent_change_7d": "-10.68",
  "last_updated": "1509915544"
  },
  {
  "id": "tron",
  "name": "TRON",
  "symbol": "TRX",
  "rank": "39",
  "price_usd": "0.00219697",
  "price_btc": "0.00000029",
  "24h_volume_usd": "1781900.0",
  "market_cap_usd": "143963473.0",
  "available_supply": "65528192465.0",
  "total_supply": "100000000000",
  "percent_change_1h": "1.02",
  "percent_change_24h": "-2.81",
  "percent_change_7d": "-27.39",
  "last_updated": "1509915564"
  },
  {
  "id": "gas",
  "name": "Gas",
  "symbol": "GAS",
  "rank": "40",
  "price_usd": "16.5569",
  "price_btc": "0.00220093",
  "24h_volume_usd": "465332.0",
  "market_cap_usd": "142340255.0",
  "available_supply": "8597035.0",
  "total_supply": "11822072.0",
  "percent_change_1h": "-3.43",
  "percent_change_24h": "-4.6",
  "percent_change_7d": "-9.49",
  "last_updated": "1509915561"
  },
  {
  "id": "basic-attention-token",
  "name": "Basic Attention Token",
  "symbol": "BAT",
  "rank": "41",
  "price_usd": "0.14151",
  "price_btc": "0.00001881",
  "24h_volume_usd": "1237560.0",
  "market_cap_usd": "141510000.0",
  "available_supply": "1000000000.0",
  "total_supply": "1500000000.0",
  "percent_change_1h": "0.49",
  "percent_change_24h": "-0.06",
  "percent_change_7d": "-5.17",
  "last_updated": "1509915560"
  },
  {
  "id": "monacoin",
  "name": "MonaCoin",
  "symbol": "MONA",
  "rank": "42",
  "price_usd": "2.52559",
  "price_btc": "0.00033573",
  "24h_volume_usd": "2069630.0",
  "market_cap_usd": "139217024.0",
  "available_supply": "55122575.0",
  "total_supply": "55122575.0",
  "percent_change_1h": "0.77",
  "percent_change_24h": "-3.39",
  "percent_change_7d": "-13.55",
  "last_updated": "1509915543"
  },
  {
  "id": "bitcoindark",
  "name": "BitcoinDark",
  "symbol": "BTCD",
  "rank": "43",
  "price_usd": "107.527",
  "price_btc": "0.0142937",
  "24h_volume_usd": "62870.8",
  "market_cap_usd": "138587484.0",
  "available_supply": "1288862.0",
  "total_supply": "1288862.0",
  "percent_change_1h": "-0.74",
  "percent_change_24h": "-2.71",
  "percent_change_7d": "14.09",
  "last_updated": "1509915545"
  },
  {
  "id": "dogecoin",
  "name": "Dogecoin",
  "symbol": "DOGE",
  "rank": "44",
  "price_usd": "0.00122558",
  "price_btc": "0.00000016",
  "24h_volume_usd": "1729390.0",
  "market_cap_usd": "137016482.0",
  "available_supply": "111797256602",
  "total_supply": "111797256602",
  "percent_change_1h": "1.31",
  "percent_change_24h": "2.37",
  "percent_change_7d": "4.95",
  "last_updated": "1509915542"
  },
  {
  "id": "kyber-network",
  "name": "Kyber Network",
  "symbol": "KNC",
  "rank": "45",
  "price_usd": "1.00187",
  "price_btc": "0.00013318",
  "24h_volume_usd": "1431520.0",
  "market_cap_usd": "134383525.0",
  "available_supply": "134132697.0",
  "total_supply": "215625349.0",
  "percent_change_1h": "0.23",
  "percent_change_24h": "-4.11",
  "percent_change_7d": "1.82",
  "last_updated": "1509915565"
  },
  {
  "id": "digixdao",
  "name": "DigixDAO",
  "symbol": "DGD",
  "rank": "46",
  "price_usd": "65.0735",
  "price_btc": "0.00865034",
  "24h_volume_usd": "127045.0",
  "market_cap_usd": "130147000.0",
  "available_supply": "2000000.0",
  "total_supply": "2000000.0",
  "percent_change_1h": "-0.45",
  "percent_change_24h": "-5.98",
  "percent_change_7d": "3.63",
  "last_updated": "1509915551"
  },
  {
  "id": "verge",
  "name": "Verge",
  "symbol": "XVG",
  "rank": "47",
  "price_usd": "0.00887618",
  "price_btc": "0.00000118",
  "24h_volume_usd": "8860790.0",
  "market_cap_usd": "126022780.0",
  "available_supply": "14197862158.0",
  "total_supply": "14197862158.0",
  "percent_change_1h": "-1.12",
  "percent_change_24h": "20.74",
  "percent_change_7d": "67.68",
  "last_updated": "1509915547"
  },
  {
  "id": "factom",
  "name": "Factom",
  "symbol": "FCT",
  "rank": "48",
  "price_usd": "13.7448",
  "price_btc": "0.00182712",
  "24h_volume_usd": "4632930.0",
  "market_cap_usd": "120199678.0",
  "available_supply": "8745102.0",
  "total_supply": "8745102.0",
  "percent_change_1h": "0.45",
  "percent_change_24h": "-2.81",
  "percent_change_7d": "-9.68",
  "last_updated": "1509915548"
  },
  {
  "id": "walton",
  "name": "Walton",
  "symbol": "WTC",
  "rank": "49",
  "price_usd": "4.72874",
  "price_btc": "0.0006286",
  "24h_volume_usd": "3223210.0",
  "market_cap_usd": "117737010.0",
  "available_supply": "24898178.0",
  "total_supply": "70000000.0",
  "percent_change_1h": "-1.31",
  "percent_change_24h": "-5.06",
  "percent_change_7d": "-31.59",
  "last_updated": "1509915563"
  },
  {
  "id": "salt",
  "name": "SALT",
  "symbol": "SALT",
  "rank": "50",
  "price_usd": "2.49905",
  "price_btc": "0.0003322",
  "24h_volume_usd": "3239240.0",
  "market_cap_usd": "116835178.0",
  "available_supply": "46751837.0",
  "total_supply": "120000000.0",
  "percent_change_1h": "0.73",
  "percent_change_24h": "0.91",
  "percent_change_7d": "-15.14",
  "last_updated": "1509915565"
  },
  {
  "id": "veritaseum",
  "name": "Veritaseum",
  "symbol": "VERI",
  "rank": "51",
  "price_usd": "55.3466",
  "price_btc": "0.00735733",
  "24h_volume_usd": "250404.0",
  "market_cap_usd": "112134727.0",
  "available_supply": "2026045.0",
  "total_supply": "100000000.0",
  "percent_change_1h": "-3.29",
  "percent_change_24h": "2.23",
  "percent_change_7d": "4.35",
  "last_updated": "1509915559"
  },
  {
  "id": "byteball",
  "name": "Byteball Bytes",
  "symbol": "GBYTE",
  "rank": "52",
  "price_usd": "170.947",
  "price_btc": "0.0227243",
  "24h_volume_usd": "1380000.0",
  "market_cap_usd": "110298774.0",
  "available_supply": "645222.0",
  "total_supply": "1000000.0",
  "percent_change_1h": "3.66",
  "percent_change_24h": "-12.27",
  "percent_change_7d": "-20.3",
  "last_updated": "1509915554"
  },
  {
  "id": "bytom",
  "name": "Bytom",
  "symbol": "BTM",
  "rank": "53",
  "price_usd": "0.110699",
  "price_btc": "0.00001472",
  "24h_volume_usd": "511038.0",
  "market_cap_usd": "109259913.0",
  "available_supply": "987000000.0",
  "total_supply": "1407000000.0",
  "percent_change_1h": "0.37",
  "percent_change_24h": "-7.23",
  "percent_change_7d": "37.46",
  "last_updated": "1509915563"
  },
  {
  "id": "syscoin",
  "name": "Syscoin",
  "symbol": "SYS",
  "rank": "54",
  "price_usd": "0.206563",
  "price_btc": "0.00002746",
  "24h_volume_usd": "1968530.0",
  "market_cap_usd": "109202913.0",
  "available_supply": "528666376.0",
  "total_supply": "528666376.0",
  "percent_change_1h": "0.66",
  "percent_change_24h": "4.92",
  "percent_change_7d": "-13.27",
  "last_updated": "1509915546"
  },
  {
  "id": "status",
  "name": "Status",
  "symbol": "SNT",
  "rank": "55",
  "price_usd": "0.0311445",
  "price_btc": "0.00000414",
  "24h_volume_usd": "2354250.0",
  "market_cap_usd": "108086482.0",
  "available_supply": "3470483788.0",
  "total_supply": "6804870174.0",
  "percent_change_1h": "0.18",
  "percent_change_24h": "-0.33",
  "percent_change_7d": "-13.86",
  "last_updated": "1509915560"
  },
  {
  "id": "siacoin",
  "name": "Siacoin",
  "symbol": "SC",
  "rank": "56",
  "price_usd": "0.00345991",
  "price_btc": "0.00000046",
  "24h_volume_usd": "708325.0",
  "market_cap_usd": "105994136.0",
  "available_supply": "30634940250.0",
  "total_supply": "30634940250.0",
  "percent_change_1h": "-0.53",
  "percent_change_24h": "-2.26",
  "percent_change_7d": "-9.24",
  "last_updated": "1509915549"
  },
  {
  "id": "iconomi",
  "name": "Iconomi",
  "symbol": "ICN",
  "rank": "57",
  "price_usd": "1.05069",
  "price_btc": "0.00013967",
  "24h_volume_usd": "552410.0",
  "market_cap_usd": "104846584.0",
  "available_supply": "99788314.0",
  "total_supply": "99788314.0",
  "percent_change_1h": "-0.85",
  "percent_change_24h": "-8.23",
  "percent_change_7d": "-10.74",
  "last_updated": "1509915553"
  },
  {
  "id": "gamecredits",
  "name": "GameCredits",
  "symbol": "GAME",
  "rank": "58",
  "price_usd": "1.6237",
  "price_btc": "0.00021584",
  "24h_volume_usd": "538246.0",
  "market_cap_usd": "104493785.0",
  "available_supply": "64355352.0",
  "total_supply": "64355352.0",
  "percent_change_1h": "-0.72",
  "percent_change_24h": "-3.33",
  "percent_change_7d": "-15.37",
  "last_updated": "1509915545"
  },
  {
  "id": "singulardtv",
  "name": "SingularDTV",
  "symbol": "SNGLS",
  "rank": "59",
  "price_usd": "0.16723",
  "price_btc": "0.00002223",
  "24h_volume_usd": "3708690.0",
  "market_cap_usd": "100338000.0",
  "available_supply": "600000000.0",
  "total_supply": "1000000000.0",
  "percent_change_1h": "-1.49",
  "percent_change_24h": "11.68",
  "percent_change_7d": "13.27",
  "last_updated": "1509915553"
  },
  {
  "id": "gxshares",
  "name": "GXShares",
  "symbol": "GXS",
  "rank": "60",
  "price_usd": "2.46594",
  "price_btc": "0.0003278",
  "24h_volume_usd": "516752.0",
  "market_cap_usd": "99895229.0",
  "available_supply": "40510000.0",
  "total_supply": "100000000.0",
  "percent_change_1h": "-0.34",
  "percent_change_24h": "-6.13",
  "percent_change_7d": "37.13",
  "last_updated": "1509915561"
  },
  {
  "id": "civic",
  "name": "Civic",
  "symbol": "CVC",
  "rank": "61",
  "price_usd": "0.291043",
  "price_btc": "0.00003869",
  "24h_volume_usd": "807810.0",
  "market_cap_usd": "99740436.0",
  "available_supply": "342700000.0",
  "total_supply": "1000000000.0",
  "percent_change_1h": "0.88",
  "percent_change_24h": "1.19",
  "percent_change_7d": "-12.92",
  "last_updated": "1509915561"
  },
  {
  "id": "lykke",
  "name": "Lykke",
  "symbol": "LKK",
  "rank": "62",
  "price_usd": "0.36062",
  "price_btc": "0.00004794",
  "24h_volume_usd": "117937.0",
  "market_cap_usd": "97047587.0",
  "available_supply": "269113157.0",
  "total_supply": "1285690000.0",
  "percent_change_1h": "-1.46",
  "percent_change_24h": "0.45",
  "percent_change_7d": "-0.94",
  "last_updated": "1509915554"
  },
  {
  "id": "metal",
  "name": "Metal",
  "symbol": "MTL",
  "rank": "63",
  "price_usd": "4.92367",
  "price_btc": "0.00065451",
  "24h_volume_usd": "1388390.0",
  "market_cap_usd": "95031725.0",
  "available_supply": "19300994.0",
  "total_supply": "66588888.0",
  "percent_change_1h": "2.57",
  "percent_change_24h": "-4.35",
  "percent_change_7d": "-44.01",
  "last_updated": "1509915561"
  },
  {
  "id": "blocknet",
  "name": "Blocknet",
  "symbol": "BLOCK",
  "rank": "64",
  "price_usd": "18.8209",
  "price_btc": "0.0025019",
  "24h_volume_usd": "179847.0",
  "market_cap_usd": "91703765.0",
  "available_supply": "4872443.0",
  "total_supply": "4872443.0",
  "percent_change_1h": "0.83",
  "percent_change_24h": "2.22",
  "percent_change_7d": "3.64",
  "last_updated": "1509915546"
  },
  {
  "id": "0x",
  "name": "0x",
  "symbol": "ZRX",
  "rank": "65",
  "price_usd": "0.17678",
  "price_btc": "0.00002350",
  "24h_volume_usd": "1059250.0",
  "market_cap_usd": "88390000.0",
  "available_supply": "500000000.0",
  "total_supply": "1000000000.0",
  "percent_change_1h": "-0.38",
  "percent_change_24h": "-3.71",
  "percent_change_7d": "-10.92",
  "last_updated": "1509915564"
  },
  {
  "id": "aeternity",
  "name": "Aeternity",
  "symbol": "AE",
  "rank": "66",
  "price_usd": "0.367577",
  "price_btc": "0.00004886",
  "24h_volume_usd": "1019750.0",
  "market_cap_usd": "85652966.0",
  "available_supply": "233020472.0",
  "total_supply": "273685830.0",
  "percent_change_1h": "-0.34",
  "percent_change_24h": "12.15",
  "percent_change_7d": "38.8",
  "last_updated": "1509915559"
  },
  {
  "id": "digibyte",
  "name": "DigiByte",
  "symbol": "DGB",
  "rank": "67",
  "price_usd": "0.00854234",
  "price_btc": "0.00000114",
  "24h_volume_usd": "1259190.0",
  "market_cap_usd": "79973581.0",
  "available_supply": "9362022725.0",
  "total_supply": "9362022725.0",
  "percent_change_1h": "0.02",
  "percent_change_24h": "1.43",
  "percent_change_7d": "-6.43",
  "last_updated": "1509915542"
  },
  {
  "id": "bancor",
  "name": "Bancor",
  "symbol": "BNT",
  "rank": "68",
  "price_usd": "1.86148",
  "price_btc": "0.00024745",
  "24h_volume_usd": "2003460.0",
  "market_cap_usd": "75897883.0",
  "available_supply": "40772871.0",
  "total_supply": "79384422.0",
  "percent_change_1h": "-0.44",
  "percent_change_24h": "-3.19",
  "percent_change_7d": "-6.13",
  "last_updated": "1509915560"
  },
  {
  "id": "gnosis-gno",
  "name": "Gnosis",
  "symbol": "GNO",
  "rank": "69",
  "price_usd": "64.6413",
  "price_btc": "0.00859288",
  "24h_volume_usd": "851837.0",
  "market_cap_usd": "71402134.0",
  "available_supply": "1104590.0",
  "total_supply": "10000000.0",
  "percent_change_1h": "-0.9",
  "percent_change_24h": "5.29",
  "percent_change_7d": "-12.58",
  "last_updated": "1509915558"
  },
  {
  "id": "pura",
  "name": "Pura",
  "symbol": "PURA",
  "rank": "70",
  "price_usd": "0.410766",
  "price_btc": "0.00005460",
  "24h_volume_usd": "109839.0",
  "market_cap_usd": "70529390.0",
  "available_supply": "171702114.0",
  "total_supply": "178484608.0",
  "percent_change_1h": "3.72",
  "percent_change_24h": "1.95",
  "percent_change_7d": "-7.51",
  "last_updated": "1509915556"
  },
  {
  "id": "particl",
  "name": "Particl",
  "symbol": "PART",
  "rank": "71",
  "price_usd": "8.92987",
  "price_btc": "0.00118706",
  "24h_volume_usd": "300715.0",
  "market_cap_usd": "69311086.0",
  "available_supply": "7761713.0",
  "total_supply": "8757713.0",
  "percent_change_1h": "4.09",
  "percent_change_24h": "12.33",
  "percent_change_7d": "24.16",
  "last_updated": "1509915562"
  },
  {
  "id": "attention-token-of-media",
  "name": "ATMChain",
  "symbol": "ATM",
  "rank": "72",
  "price_usd": "0.0231347",
  "price_btc": "0.00000308",
  "24h_volume_usd": "178738.0",
  "market_cap_usd": "67403745.0",
  "available_supply": "2913534434.0",
  "total_supply": "10000000000.0",
  "percent_change_1h": "-1.4",
  "percent_change_24h": "8.43",
  "percent_change_7d": "-17.81",
  "last_updated": "1509915565"
  },
  {
  "id": "metaverse",
  "name": "Metaverse ETP",
  "symbol": "ETP",
  "rank": "73",
  "price_usd": "2.9588",
  "price_btc": "0.00039332",
  "24h_volume_usd": "3504880.0",
  "market_cap_usd": "66868880.0",
  "available_supply": "22600000.0",
  "total_supply": "55615054.0",
  "percent_change_1h": "-1.76",
  "percent_change_24h": "-3.62",
  "percent_change_7d": "-24.68",
  "last_updated": "1509915559"
  },
  {
  "id": "kucoin",
  "name": "KuCoin Shares",
  "symbol": "KCS",
  "rank": "74",
  "price_usd": "0.709328",
  "price_btc": "0.00009429",
  "24h_volume_usd": "898062.0",
  "market_cap_usd": "64579403.0",
  "available_supply": "91043076.0",
  "total_supply": "181043076.0",
  "percent_change_1h": "-0.21",
  "percent_change_24h": "-3.01",
  "percent_change_7d": "-21.47",
  "last_updated": "1509915567"
  },
  {
  "id": "funfair",
  "name": "FunFair",
  "symbol": "FUN",
  "rank": "75",
  "price_usd": "0.0155895",
  "price_btc": "0.00000207",
  "24h_volume_usd": "734955.0",
  "market_cap_usd": "62358000.0",
  "available_supply": "4000000000.0",
  "total_supply": "10999873621.0",
  "percent_change_1h": "0.46",
  "percent_change_24h": "-4.67",
  "percent_change_7d": "-16.96",
  "last_updated": "1509915561"
  },
  {
  "id": "bitqy",
  "name": "bitqy",
  "symbol": "BQ",
  "rank": "76",
  "price_usd": "0.0411232",
  "price_btc": "0.00000547",
  "24h_volume_usd": "76505.5",
  "market_cap_usd": "62334403.0",
  "available_supply": "1515796504.0",
  "total_supply": "10000000000.0",
  "percent_change_1h": "2.33",
  "percent_change_24h": "49.26",
  "percent_change_7d": "68.7",
  "last_updated": "1509915563"
  },
  {
  "id": "chainlink",
  "name": "ChainLink",
  "symbol": "LINK",
  "rank": "77",
  "price_usd": "0.172036",
  "price_btc": "0.00002287",
  "24h_volume_usd": "1013760.0",
  "market_cap_usd": "60212600.0",
  "available_supply": "350000000.0",
  "total_supply": "1000000000.0",
  "percent_change_1h": "0.49",
  "percent_change_24h": "-4.37",
  "percent_change_7d": "-15.52",
  "last_updated": "1509915564"
  },
  {
  "id": "bitquence",
  "name": "Bitquence",
  "symbol": "BQX",
  "rank": "78",
  "price_usd": "0.835984",
  "price_btc": "0.00011113",
  "24h_volume_usd": "713938.0",
  "market_cap_usd": "60099405.0",
  "available_supply": "71890616.0",
  "total_supply": "222295208.0",
  "percent_change_1h": "1.58",
  "percent_change_24h": "1.51",
  "percent_change_7d": "-7.15",
  "last_updated": "1509915562"
  },
  {
  "id": "vechain",
  "name": "VeChain",
  "symbol": "VEN",
  "rank": "79",
  "price_usd": "0.21352",
  "price_btc": "0.00002838",
  "24h_volume_usd": "496148.0",
  "market_cap_usd": "59179765.0",
  "available_supply": "277162633.0",
  "total_supply": "867162633.0",
  "percent_change_1h": "-0.07",
  "percent_change_24h": "-3.88",
  "percent_change_7d": "2.01",
  "last_updated": "1509915563"
  },
  {
  "id": "nxt",
  "name": "Nxt",
  "symbol": "NXT",
  "rank": "80",
  "price_usd": "0.0574547",
  "price_btc": "0.00000764",
  "24h_volume_usd": "2410630.0",
  "market_cap_usd": "57397242.0",
  "available_supply": "998999942.0",
  "total_supply": "998999942.0",
  "percent_change_1h": "-1.06",
  "percent_change_24h": "0.76",
  "percent_change_7d": "-3.48",
  "last_updated": "1509915542"
  },
  {
  "id": "monaco",
  "name": "Monaco",
  "symbol": "MCO",
  "rank": "81",
  "price_usd": "5.64884",
  "price_btc": "0.00075091",
  "24h_volume_usd": "2446490.0",
  "market_cap_usd": "55442660.0",
  "available_supply": "9814875.0",
  "total_supply": "31587682.0",
  "percent_change_1h": "-1.91",
  "percent_change_24h": "-4.66",
  "percent_change_7d": "-37.16",
  "last_updated": "1509915561"
  },
  {
  "id": "mcap",
  "name": "MCAP",
  "symbol": "MCAP",
  "rank": "82",
  "price_usd": "1.41546",
  "price_btc": "0.00018816",
  "24h_volume_usd": "706885.0",
  "market_cap_usd": "54205948.0",
  "available_supply": "38295641.0",
  "total_supply": "100000000.0",
  "percent_change_1h": "-0.55",
  "percent_change_24h": "-9.41",
  "percent_change_7d": "-25.71",
  "last_updated": "1509915559"
  },
  {
  "id": "storj",
  "name": "Storj",
  "symbol": "STORJ",
  "rank": "83",
  "price_usd": "0.516136",
  "price_btc": "0.00006861",
  "24h_volume_usd": "3149410.0",
  "market_cap_usd": "52451711.0",
  "available_supply": "101623819.0",
  "total_supply": "424999998.0",
  "percent_change_1h": "0.07",
  "percent_change_24h": "5.48",
  "percent_change_7d": "16.48",
  "last_updated": "1509915561"
  },
  {
  "id": "zencash",
  "name": "ZenCash",
  "symbol": "ZEN",
  "rank": "84",
  "price_usd": "21.2681",
  "price_btc": "0.00282721",
  "24h_volume_usd": "1505250.0",
  "market_cap_usd": "51394542.0",
  "available_supply": "2416508.0",
  "total_supply": "2416508.0",
  "percent_change_1h": "2.33",
  "percent_change_24h": "3.04",
  "percent_change_7d": "12.64",
  "last_updated": "1509915560"
  },
  {
  "id": "nexus",
  "name": "Nexus",
  "symbol": "NXS",
  "rank": "85",
  "price_usd": "0.938184",
  "price_btc": "0.00012471",
  "24h_volume_usd": "301323.0",
  "market_cap_usd": "50255539.0",
  "available_supply": "53566826.0",
  "total_supply": "53566826.0",
  "percent_change_1h": "-0.0",
  "percent_change_24h": "-6.3",
  "percent_change_7d": "-18.95",
  "last_updated": "1509915546"
  },
  {
  "id": "nav-coin",
  "name": "NAV Coin",
  "symbol": "NAV",
  "rank": "86",
  "price_usd": "0.804231",
  "price_btc": "0.00010691",
  "24h_volume_usd": "945592.0",
  "market_cap_usd": "49856526.0",
  "available_supply": "61992794.0",
  "total_supply": "61992794.0",
  "percent_change_1h": "1.2",
  "percent_change_24h": "-0.44",
  "percent_change_7d": "0.22",
  "last_updated": "1509915544"
  },
  {
  "id": "zcoin",
  "name": "ZCoin",
  "symbol": "XZC",
  "rank": "87",
  "price_usd": "14.735",
  "price_btc": "0.00195876",
  "24h_volume_usd": "885288.0",
  "market_cap_usd": "49641131.0",
  "available_supply": "3368926.0",
  "total_supply": "3368926.0",
  "percent_change_1h": "-4.98",
  "percent_change_24h": "4.06",
  "percent_change_7d": "5.01",
  "last_updated": "1509915556"
  },
  {
  "id": "bitdeal",
  "name": "Bitdeal",
  "symbol": "BDL",
  "rank": "88",
  "price_usd": "0.31528",
  "price_btc": "0.00004191",
  "24h_volume_usd": "121479.0",
  "market_cap_usd": "49249830.0",
  "available_supply": "156209812.0",
  "total_supply": "219386062.0",
  "percent_change_1h": "-2.54",
  "percent_change_24h": "-7.05",
  "percent_change_7d": "-20.08",
  "last_updated": "1509915561"
  },
  {
  "id": "smartcash",
  "name": "SmartCash",
  "symbol": "SMART",
  "rank": "89",
  "price_usd": "0.0583905",
  "price_btc": "0.00000776",
  "24h_volume_usd": "106828.0",
  "market_cap_usd": "48769398.0",
  "available_supply": "835228302.0",
  "total_supply": "835228302.0",
  "percent_change_1h": "4.77",
  "percent_change_24h": "-4.31",
  "percent_change_7d": "-43.14",
  "last_updated": "1509915561"
  },
  {
  "id": "faircoin",
  "name": "FairCoin",
  "symbol": "FAIR",
  "rank": "90",
  "price_usd": "0.910325",
  "price_btc": "0.00012101",
  "24h_volume_usd": "77773.6",
  "market_cap_usd": "48423675.0",
  "available_supply": "53193831.0",
  "total_supply": "53193831.0",
  "percent_change_1h": "-1.63",
  "percent_change_24h": "-2.11",
  "percent_change_7d": "11.72",
  "last_updated": "1509915557"
  },
  {
  "id": "neblio",
  "name": "Neblio",
  "symbol": "NEBL",
  "rank": "91",
  "price_usd": "3.85115",
  "price_btc": "0.00051194",
  "24h_volume_usd": "255390.0",
  "market_cap_usd": "48224473.0",
  "available_supply": "12522097.0",
  "total_supply": "13250205.0",
  "percent_change_1h": "-0.4",
  "percent_change_24h": "-17.38",
  "percent_change_7d": "-21.62",
  "last_updated": "1509915564"
  },
  {
  "id": "groestlcoin",
  "name": "Groestlcoin",
  "symbol": "GRS",
  "rank": "92",
  "price_usd": "0.686042",
  "price_btc": "0.00009120",
  "24h_volume_usd": "17216800.0",
  "market_cap_usd": "47157837.0",
  "available_supply": "68738994.0",
  "total_supply": "68738994.0",
  "percent_change_1h": "-1.35",
  "percent_change_24h": "-20.96",
  "percent_change_7d": "103.92",
  "last_updated": "1509915543"
  },
  {
  "id": "nolimitcoin",
  "name": "NoLimitCoin",
  "symbol": "NLC2",
  "rank": "93",
  "price_usd": "0.22439",
  "price_btc": "0.00002983",
  "24h_volume_usd": "141724.0",
  "market_cap_usd": "45821961.0",
  "available_supply": "204206789.0",
  "total_supply": "204206789.0",
  "percent_change_1h": "-3.17",
  "percent_change_24h": "10.1",
  "percent_change_7d": "3.74",
  "last_updated": "1509915553"
  },
  {
  "id": "adx-net",
  "name": "AdEx",
  "symbol": "ADX",
  "rank": "94",
  "price_usd": "0.805251",
  "price_btc": "0.00010704",
  "24h_volume_usd": "1150930.0",
  "market_cap_usd": "45380324.0",
  "available_supply": "56355501.0",
  "total_supply": "100000000.0",
  "percent_change_1h": "0.87",
  "percent_change_24h": "0.96",
  "percent_change_7d": "-14.54",
  "last_updated": "1509915560"
  },
  {
  "id": "rlc",
  "name": "iExec RLC",
  "symbol": "RLC",
  "rank": "95",
  "price_usd": "0.56928",
  "price_btc": "0.00007568",
  "24h_volume_usd": "306757.0",
  "market_cap_usd": "45013421.0",
  "available_supply": "79070793.0",
  "total_supply": "86999785.0",
  "percent_change_1h": "1.1",
  "percent_change_24h": "-2.7",
  "percent_change_7d": "-17.14",
  "last_updated": "1509915558"
  },
  {
  "id": "loopring",
  "name": "Loopring",
  "symbol": "LRC",
  "rank": "96",
  "price_usd": "0.152662",
  "price_btc": "0.00002029",
  "24h_volume_usd": "506338.0",
  "market_cap_usd": "43687400.0",
  "available_supply": "286170756.0",
  "total_supply": "1395076054.0",
  "percent_change_1h": "-0.28",
  "percent_change_24h": "-4.9",
  "percent_change_7d": "1.32",
  "last_updated": "1509915563"
  },
  {
  "id": "ubiq",
  "name": "Ubiq",
  "symbol": "UBQ",
  "rank": "97",
  "price_usd": "1.09098",
  "price_btc": "0.00014503",
  "24h_volume_usd": "270573.0",
  "market_cap_usd": "42212410.0",
  "available_supply": "38692194.0",
  "total_supply": "38692194.0",
  "percent_change_1h": "-0.45",
  "percent_change_24h": "-1.61",
  "percent_change_7d": "-17.08",
  "last_updated": "1509915545"
  },
  {
  "id": "edgeless",
  "name": "Edgeless",
  "symbol": "EDG",
  "rank": "98",
  "price_usd": "0.513852",
  "price_btc": "0.00006831",
  "24h_volume_usd": "521562.0",
  "market_cap_usd": "42159649.0",
  "available_supply": "82046288.0",
  "total_supply": "132046997.0",
  "percent_change_1h": "-0.23",
  "percent_change_24h": "0.29",
  "percent_change_7d": "-20.41",
  "last_updated": "1509915558"
  },
  {
  "id": "dentacoin",
  "name": "Dentacoin",
  "symbol": "DCN",
  "rank": "99",
  "price_usd": "0.000129981",
  "price_btc": "0.00000002",
  "24h_volume_usd": "19434.0",
  "market_cap_usd": "42049764.0",
  "available_supply": "323507001026",
  "total_supply": "8000000000000",
  "percent_change_1h": "36.12",
  "percent_change_24h": "23.87",
  "percent_change_7d": "-3.83",
  "last_updated": "1509915562"
  },
  {
  "id": "aragon",
  "name": "Aragon",
  "symbol": "ANT",
  "rank": "100",
  "price_usd": "1.17613",
  "price_btc": "0.00015635",
  "24h_volume_usd": "566387.0",
  "market_cap_usd": "38442070.0",
  "available_supply": "32685221.0",
  "total_supply": "39609524.0",
  "percent_change_1h": "-1.12",
  "percent_change_24h": "-8.91",
  "percent_change_7d": "-19.97",
  "last_updated": "1509915559"
  }
  ]
